{
  "version": 1,
  "title": "Browsers per Users",
  "type": "DataTable",
  "data": {
    "type": "cube_analytics",
    "query": {
      "measures": [
        "TrackedEvents.uniqueUsersCount"
      ],
      "dimensions": [
        "TrackedEvents.parsedUaUaFamily",
        "TrackedEvents.parsedUaUaVersion"
      ],
      "limit": 100,
      "timezone": "UTC",
      "filters": [],
      "timeDimensions": []
    }
  },
  "options": {}
}
